femtoRV/basic/rtl/cores/led_panel/led_panel_8_TB.vcd
$date
	Thu Nov  6 07:30:05 2025
$end
$version
	Icarus Verilog
$end
$timescale
	1ps
$end
$scope module led_panel_8_TB $end
$var wire 5 ! ROW [4:0] $end
$var wire 3 " RGB1 [2:0] $end
$var wire 3 # RGB0 [2:0] $end
$var wire 1 $ NOE $end
$var wire 1 % LATCH $end
$var parameter 32 & PERIOD $end
$var reg 1 ' clk $end
$var reg 1 ( init $end
$var reg 1 ) rst $end
$var integer 32 * idx [31:0] $end
$scope module uut $end
$var wire 1 + LP_CLK $end
$var wire 1 ' clk $end
$var wire 1 ( init $end
$var wire 1 ) rst $end
$var wire 1 , w_ZR $end
$var wire 1 - w_ZD $end
$var wire 1 . w_ZC $end
$var wire 1 / w_RST_R $end
$var wire 1 0 w_RST_D $end
$var wire 1 1 w_RST_C $end
$var wire 1 2 w_INC_R $end
$var wire 1 3 w_INC_D $end
$var wire 1 4 w_INC_C $end
$var wire 11 5 delay [10:0] $end
$var wire 5 6 ROW [4:0] $end
$var wire 3 7 RGB1 [2:0] $end
$var wire 3 8 RGB0 [2:0] $end
$var wire 1 9 PX_CLK_EN $end
$var wire 11 : PIX_ADDR [10:0] $end
$var wire 1 $ NOE $end
$var wire 1 % LATCH $end
$var wire 6 ; COL [5:0] $end
$var parameter 32 < DELAY $end
$var reg 1 = clk1 $end
$var reg 5 > clk_counter [4:0] $end
$scope module compa $end
$var wire 11 ? in1 [10:0] $end
$var parameter 32 @ value $end
$var parameter 32 A width $end
$var reg 1 - out $end
$upscope $end
$scope module count_col $end
$var wire 1 = clk $end
$var wire 1 . zero $end
$var wire 1 1 reset $end
$var wire 1 4 inc $end
$var parameter 32 B width $end
$var reg 6 C outc [5:0] $end
$upscope $end
$scope module count_delay $end
$var wire 1 = clk $end
$var wire 1 D zero $end
$var wire 1 0 reset $end
$var wire 1 3 inc $end
$var parameter 32 E width $end
$var reg 11 F outc [10:0] $end
$upscope $end
$scope module count_row $end
$var wire 1 = clk $end
$var wire 1 , zero $end
$var wire 1 / reset $end
$var wire 1 2 inc $end
$var parameter 32 G width $end
$var reg 5 H outc [4:0] $end
$upscope $end
$scope module ctrl0 $end
$var wire 1 . ZC $end
$var wire 1 - ZD $end
$var wire 1 , ZR $end
$var wire 1 = clk $end
$var wire 1 I init $end
$var wire 1 ) rst $end
$var parameter 3 J DELAY_ROW $end
$var parameter 3 K GET_PIXEL $end
$var parameter 3 L INC_COL $end
$var parameter 3 M INC_ROW $end
$var parameter 3 N READY_FRAME $end
$var parameter 3 O ROW_READY $end
$var parameter 3 P SEND_ROW $end
$var parameter 3 Q START $end
$var reg 1 4 INC_C $end
$var reg 1 3 INC_D $end
$var reg 1 2 INC_R $end
$var reg 1 % LATCH $end
$var reg 1 $ NOE $end
$var reg 1 9 PX_CLK_EN $end
$var reg 1 1 RST_C $end
$var reg 1 0 RST_D $end
$var reg 1 / RST_R $end
$var reg 3 R state [2:0] $end
$var reg 320 S state_name [320:1] $end
$upscope $end
$scope module mem0 $end
$var wire 11 T address [10:0] $end
$var wire 1 = clk $end
$var wire 1 U rd $end
$var reg 6 V rdata [5:0] $end
$upscope $end
$upscope $end
$scope begin TEST_CASE $end
$upscope $end
$upscope $end
$scope module led_panel_8_TB $end
$scope module uut $end
$scope module mem0 $end
$var reg 6 W \MEM[0] [5:0] $end
$upscope $end
$upscope $end
$upscope $end
$scope module led_panel_8_TB $end
$scope module uut $end
$scope module mem0 $end
$var reg 6 X \MEM[1] [5:0] $end
$upscope $end
$upscope $end
$upscope $end
$scope module led_panel_8_TB $end
$scope module uut $end
$scope module mem0 $end
$var reg 6 Y \MEM[2] [5:0] $end
$upscope $end
$upscope $end
$upscope $end
$scope module led_panel_8_TB $end
$scope module uut $end
$scope module mem0 $end
$var reg 6 Z \MEM[3] [5:0] $end
$upscope $end
$upscope $end
$upscope $end
$scope module led_panel_8_TB $end
$scope module uut $end
$scope module mem0 $end
$var reg 6 [ \MEM[4] [5:0] $end
$upscope $end
$upscope $end
$upscope $end
$scope module led_panel_8_TB $end
$scope module uut $end
$scope module mem0 $end
$var reg 6 \ \MEM[5] [5:0] $end
$upscope $end
$upscope $end
$upscope $end
$scope module led_panel_8_TB $end
$scope module uut $end
$scope module mem0 $end
$var reg 6 ] \MEM[6] [5:0] $end
$upscope $end
$upscope $end
$upscope $end
$scope module led_panel_8_TB $end
$scope module uut $end
$scope module mem0 $end
$var reg 6 ^ \MEM[7] [5:0] $end
$upscope $end
$upscope $end
$upscope $end
$scope module led_panel_8_TB $end
$scope module uut $end
$scope module mem0 $end
$var reg 6 _ \MEM[8] [5:0] $end
$upscope $end
$upscope $end
$upscope $end
$scope module led_panel_8_TB $end
$scope module uut $end
$scope module mem0 $end
$var reg 6 ` \MEM[9] [5:0] $end
$upscope $end
$upscope $end
$upscope $end
$scope module led_panel_8_TB $end
$scope module uut $end
$scope module mem0 $end
$var reg 6 a \MEM[10] [5:0] $end
$upscope $end
$upscope $end
$upscope $end
$scope module led_panel_8_TB $end
$scope module uut $end
$scope module mem0 $end
$var reg 6 b \MEM[11] [5:0] $end
$upscope $end
$upscope $end
$upscope $end
$scope module led_panel_8_TB $end
$scope module uut $end
$scope module mem0 $end
$var reg 6 c \MEM[12] [5:0] $end
$upscope $end
$upscope $end
$upscope $end
$scope module led_panel_8_TB $end
$scope module uut $end
$scope module mem0 $end
$var reg 6 d \MEM[13] [5:0] $end
$upscope $end
$upscope $end
$upscope $end
$scope module led_panel_8_TB $end
$scope module uut $end
$scope module mem0 $end
$var reg 6 e \MEM[14] [5:0] $end
$upscope $end
$upscope $end
$upscope $end
$scope module led_panel_8_TB $end
$scope module uut $end
$scope module mem0 $end
$var reg 6 f \MEM[15] [5:0] $end
$upscope $end
$upscope $end
$upscope $end
$scope module led_panel_8_TB $end
$scope module uut $end
$scope module mem0 $end
$var reg 6 g \MEM[16] [5:0] $end
$upscope $end
$upscope $end
$upscope $end
$scope module led_panel_8_TB $end
$scope module uut $end
$scope module mem0 $end
$var reg 6 h \MEM[17] [5:0] $end
$upscope $end
$upscope $end
$upscope $end
$scope module led_panel_8_TB $end
$scope module uut $end
$scope module mem0 $end
$var reg 6 i \MEM[18] [5:0] $end
$upscope $end
$upscope $end
$upscope $end
$scope module led_panel_8_TB $end
$scope module uut $end
$scope module mem0 $end
$var reg 6 j \MEM[19] [5:0] $end
$upscope $end
$upscope $end
$upscope $end
$scope module led_panel_8_TB $end
$scope module uut $end
$scope module mem0 $end
$var reg 6 k \MEM[20] [5:0] $end
$upscope $end
$upscope $end
$upscope $end
$scope module led_panel_8_TB $end
$scope module uut $end
$scope module mem0 $end
$var reg 6 l \MEM[21] [5:0] $end
$upscope $end
$upscope $end
$upscope $end
$scope module led_panel_8_TB $end
$scope module uut $end
$scope module mem0 $end
$var reg 6 m \MEM[22] [5:0] $end
$upscope $end
$upscope $end
$upscope $end
$scope module led_panel_8_TB $end
$scope module uut $end
$scope module mem0 $end
$var reg 6 n \MEM[23] [5:0] $end
$upscope $end
$upscope $end
$upscope $end
$scope module led_panel_8_TB $end
$scope module uut $end
$scope module mem0 $end
$var reg 6 o \MEM[24] [5:0] $end
$upscope $end
$upscope $end
$upscope $end
$scope module led_panel_8_TB $end
$scope module uut $end
$scope module mem0 $end
$var reg 6 p \MEM[25] [5:0] $end
$upscope $end
$upscope $end
$upscope $end
$scope module led_panel_8_TB $end
$scope module uut $end
$scope module mem0 $end
$var reg 6 q \MEM[26] [5:0] $end
$upscope $end
$upscope $end
$upscope $end
$scope module led_panel_8_TB $end
$scope module uut $end
$scope module mem0 $end
$var reg 6 r \MEM[27] [5:0] $end
$upscope $end
$upscope $end
$upscope $end
$scope module led_panel_8_TB $end
$scope module uut $end
$scope module mem0 $end
$var reg 6 s \MEM[28] [5:0] $end
$upscope $end
$upscope $end
$upscope $end
$scope module led_panel_8_TB $end
$scope module uut $end
$scope module mem0 $end
$var reg 6 t \MEM[29] [5:0] $end
$upscope $end
$upscope $end
$upscope $end
$scope module led_panel_8_TB $end
$scope module uut $end
$scope module mem0 $end
$var reg 6 u \MEM[30] [5:0] $end
$upscope $end
$upscope $end
$upscope $end
$scope module led_panel_8_TB $end
$scope module uut $end
$scope module mem0 $end
$var reg 6 v \MEM[31] [5:0] $end
$upscope $end
$upscope $end
$upscope $end
$scope module led_panel_8_TB $end
$scope module uut $end
$scope module mem0 $end
$var reg 6 w \MEM[32] [5:0] $end
$upscope $end
$upscope $end
$upscope $end
$scope module led_panel_8_TB $end
$scope module uut $end
$scope module mem0 $end
$var reg 6 x \MEM[33] [5:0] $end
$upscope $end
$upscope $end
$upscope $end
$scope module led_panel_8_TB $end
$scope module uut $end
$scope module mem0 $end
$var reg 6 y \MEM[34] [5:0] $end
$upscope $end
$upscope $end
$upscope $end
$scope module led_panel_8_TB $end
$scope module uut $end
$scope module mem0 $end
$var reg 6 z \MEM[35] [5:0] $end
$upscope $end
$upscope $end
$upscope $end
$scope module led_panel_8_TB $end
$scope module uut $end
$scope module mem0 $end
$var reg 6 { \MEM[36] [5:0] $end
$upscope $end
$upscope $end
$upscope $end
$scope module led_panel_8_TB $end
$scope module uut $end
$scope module mem0 $end
$var reg 6 | \MEM[37] [5:0] $end
$upscope $end
$upscope $end
$upscope $end
$scope module led_panel_8_TB $end
$scope module uut $end
$scope module mem0 $end
$var reg 6 } \MEM[38] [5:0] $end
$upscope $end
$upscope $end
$upscope $end
$scope module led_panel_8_TB $end
$scope module uut $end
$scope module mem0 $end
$var reg 6 ~ \MEM[39] [5:0] $end
$upscope $end
$upscope $end
$upscope $end
$scope module led_panel_8_TB $end
$scope module uut $end
$scope module mem0 $end
$var reg 6 !" \MEM[40] [5:0] $end
$upscope $end
$upscope $end
$upscope $end
$scope module led_panel_8_TB $end
$scope module uut $end
$scope module mem0 $end
$var reg 6 "" \MEM[41] [5:0] $end
$upscope $end
$upscope $end
$upscope $end
$scope module led_panel_8_TB $end
$scope module uut $end
$scope module mem0 $end
$var reg 6 #" \MEM[42] [5:0] $end
$upscope $end
$upscope $end
$upscope $end
$scope module led_panel_8_TB $end
$scope module uut $end
$scope module mem0 $end
$var reg 6 $" \MEM[43] [5:0] $end
$upscope $end
$upscope $end
$upscope $end
$scope module led_panel_8_TB $end
$scope module uut $end
$scope module mem0 $end
$var reg 6 %" \MEM[44] [5:0] $end
$upscope $end
$upscope $end
$upscope $end
$scope module led_panel_8_TB $end
$scope module uut $end
$scope module mem0 $end
$var reg 6 &" \MEM[45] [5:0] $end
$upscope $end
$upscope $end
$upscope $end
$scope module led_panel_8_TB $end
$scope module uut $end
$scope module mem0 $end
$var reg 6 '" \MEM[46] [5:0] $end
$upscope $end
$upscope $end
$upscope $end
$scope module led_panel_8_TB $end
$scope module uut $end
$scope module mem0 $end
$var reg 6 (" \MEM[47] [5:0] $end
$upscope $end
$upscope $end
$upscope $end
$scope module led_panel_8_TB $end
$scope module uut $end
$scope module mem0 $end
$var reg 6 )" \MEM[48] [5:0] $end
$upscope $end
$upscope $end
$upscope $end
$scope module led_panel_8_TB $end
$scope module uut $end
$scope module mem0 $end
$var reg 6 *" \MEM[49] [5:0] $end
$upscope $end
$upscope $end
$upscope $end
$scope module led_panel_8_TB $end
$scope module uut $end
$scope module mem0 $end
$var reg 6 +" \MEM[50] [5:0] $end
$upscope $end
$upscope $end
$upscope $end
$scope module led_panel_8_TB $end
$scope module uut $end
$scope module mem0 $end
$var reg 6 ," \MEM[51] [5:0] $end
$upscope $end
$upscope $end
$upscope $end
$scope module led_panel_8_TB $end
$scope module uut $end
$scope module mem0 $end
$var reg 6 -" \MEM[52] [5:0] $end
$upscope $end
$upscope $end
$upscope $end
$scope module led_panel_8_TB $end
$scope module uut $end
$scope module mem0 $end
$var reg 6 ." \MEM[53] [5:0] $end
$upscope $end
$upscope $end
$upscope $end
$scope module led_panel_8_TB $end
$scope module uut $end
$scope module mem0 $end
$var reg 6 /" \MEM[54] [5:0] $end
$upscope $end
$upscope $end
$upscope $end
$scope module led_panel_8_TB $end
$scope module uut $end
$scope module mem0 $end
$var reg 6 0" \MEM[55] [5:0] $end
$upscope $end
$upscope $end
$upscope $end
$scope module led_panel_8_TB $end
$scope module uut $end
$scope module mem0 $end
$var reg 6 1" \MEM[56] [5:0] $end
$upscope $end
$upscope $end
$upscope $end
$scope module led_panel_8_TB $end
$scope module uut $end
$scope module mem0 $end
$var reg 6 2" \MEM[57] [5:0] $end
$upscope $end
$upscope $end
$upscope $end
$scope module led_panel_8_TB $end
$scope module uut $end
$scope module mem0 $end
$var reg 6 3" \MEM[58] [5:0] $end
$upscope $end
$upscope $end
$upscope $end
$scope module led_panel_8_TB $end
$scope module uut $end
$scope module mem0 $end
$var reg 6 4" \MEM[59] [5:0] $end
$upscope $end
$upscope $end
$upscope $end
$scope module led_panel_8_TB $end
$scope module uut $end
$scope module mem0 $end
$var reg 6 5" \MEM[60] [5:0] $end
$upscope $end
$upscope $end
$upscope $end
$scope module led_panel_8_TB $end
$scope module uut $end
$scope module mem0 $end
$var reg 6 6" \MEM[61] [5:0] $end
$upscope $end
$upscope $end
$upscope $end
$scope module led_panel_8_TB $end
$scope module uut $end
$scope module mem0 $end
$var reg 6 7" \MEM[62] [5:0] $end
$upscope $end
$upscope $end
$upscope $end
$scope module led_panel_8_TB $end
$scope module uut $end
$scope module mem0 $end
$var reg 6 8" \MEM[63] [5:0] $end
$upscope $end
$upscope $end
$upscope $end
$scope module led_panel_8_TB $end
$scope module uut $end
$scope module mem0 $end
$var reg 6 9" \MEM[64] [5:0] $end
$upscope $end
$upscope $end
$upscope $end
$scope module led_panel_8_TB $end
$scope module uut $end
$scope module mem0 $end
$var reg 6 :" \MEM[65] [5:0] $end
$upscope $end
$upscope $end
$upscope $end
$scope module led_panel_8_TB $end
$scope module uut $end
$scope module mem0 $end
$var reg 6 ;" \MEM[66] [5:0] $end
$upscope $end
$upscope $end
$upscope $end
$scope module led_panel_8_TB $end
$scope module uut $end
$scope module mem0 $end
$var reg 6 <" \MEM[67] [5:0] $end
$upscope $end
$upscope $end
$upscope $end
$scope module led_panel_8_TB $end
$scope module uut $end
$scope module mem0 $end
$var reg 6 =" \MEM[68] [5:0] $end
$upscope $end
$upscope $end
$upscope $end
$scope module led_panel_8_TB $end
$scope module uut $end
$scope module mem0 $end
$var reg 6 >" \MEM[69] [5:0] $end
$upscope $end
$upscope $end
$upscope $end
$scope module led_panel_8_TB $end
$scope module uut $end
$scope module mem0 $end
$var reg 6 ?" \MEM[70] [5:0] $end
$upscope $end
$upscope $end
$upscope $end
$scope module led_panel_8_TB $end
$scope module uut $end
$scope module mem0 $end
$var reg 6 @" \MEM[71] [5:0] $end
$upscope $end
$upscope $end
$upscope $end
$scope module led_panel_8_TB $end
$scope module uut $end
$scope module mem0 $end
$var reg 6 A" \MEM[72] [5:0] $end
$upscope $end
$upscope $end
$upscope $end
$scope module led_panel_8_TB $end
$scope module uut $end
$scope module mem0 $end
$var reg 6 B" \MEM[73] [5:0] $end
$upscope $end
$upscope $end
$upscope $end
$scope module led_panel_8_TB $end
$scope module uut $end
$scope module mem0 $end
$var reg 6 C" \MEM[74] [5:0] $end
$upscope $end
$upscope $end
$upscope $end
$scope module led_panel_8_TB $end
$scope module uut $end
$scope module mem0 $end
$var reg 6 D" \MEM[75] [5:0] $end
$upscope $end
$upscope $end
$upscope $end
$scope module led_panel_8_TB $end
$scope module uut $end
$scope module mem0 $end
$var reg 6 E" \MEM[76] [5:0] $end
$upscope $end
$upscope $end
$upscope $end
$scope module led_panel_8_TB $end
$scope module uut $end
$scope module mem0 $end
$var reg 6 F" \MEM[77] [5:0] $end
$upscope $end
$upscope $end
$upscope $end
$scope module led_panel_8_TB $end
$scope module uut $end
$scope module mem0 $end
$var reg 6 G" \MEM[78] [5:0] $end
$upscope $end
$upscope $end
$upscope $end
$scope module led_panel_8_TB $end
$scope module uut $end
$scope module mem0 $end
$var reg 6 H" \MEM[79] [5:0] $end
$upscope $end
$upscope $end
$upscope $end
$scope module led_panel_8_TB $end
$scope module uut $end
$scope module mem0 $end
$var reg 6 I" \MEM[80] [5:0] $end
$upscope $end
$upscope $end
$upscope $end
$scope module led_panel_8_TB $end
$scope module uut $end
$scope module mem0 $end
$var reg 6 J" \MEM[81] [5:0] $end
$upscope $end
$upscope $end
$upscope $end
$scope module led_panel_8_TB $end
$scope module uut $end
$scope module mem0 $end
$var reg 6 K" \MEM[82] [5:0] $end
$upscope $end
$upscope $end
$upscope $end
$scope module led_panel_8_TB $end
$scope module uut $end
$scope module mem0 $end
$var reg 6 L" \MEM[83] [5:0] $end
$upscope $end
$upscope $end
$upscope $end
$scope module led_panel_8_TB $end
$scope module uut $end
$scope module mem0 $end
$var reg 6 M" \MEM[84] [5:0] $end
$upscope $end
$upscope $end
$upscope $end
$scope module led_panel_8_TB $end
$scope module uut $end
$scope module mem0 $end
$var reg 6 N" \MEM[85] [5:0] $end
$upscope $end
$upscope $end
$upscope $end
$scope module led_panel_8_TB $end
$scope module uut $end
$scope module mem0 $end
$var reg 6 O" \MEM[86] [5:0] $end
$upscope $end
$upscope $end
$upscope $end
$scope module led_panel_8_TB $end
$scope module uut $end
$scope module mem0 $end
$var reg 6 P" \MEM[87] [5:0] $end
$upscope $end
$upscope $end
$upscope $end
$scope module led_panel_8_TB $end
$scope module uut $end
$scope module mem0 $end
$var reg 6 Q" \MEM[88] [5:0] $end
$upscope $end
$upscope $end
$upscope $end
$scope module led_panel_8_TB $end
$scope module uut $end
$scope module mem0 $end
$var reg 6 R" \MEM[89] [5:0] $end
$upscope $end
$upscope $end
$upscope $end
$scope module led_panel_8_TB $end
$scope module uut $end
$scope module mem0 $end
$var reg 6 S" \MEM[90] [5:0] $end
$upscope $end
$upscope $end
$upscope $end
$scope module led_panel_8_TB $end
$scope module uut $end
$scope module mem0 $end
$var reg 6 T" \MEM[91] [5:0] $end
$upscope $end
$upscope $end
$upscope $end
$scope module led_panel_8_TB $end
$scope module uut $end
$scope module mem0 $end
$var reg 6 U" \MEM[92] [5:0] $end
$upscope $end
$upscope $end
$upscope $end
$scope module led_panel_8_TB $end
$scope module uut $end
$scope module mem0 $end
$var reg 6 V" \MEM[93] [5:0] $end
$upscope $end
$upscope $end
$upscope $end
$scope module led_panel_8_TB $end
$scope module uut $end
$scope module mem0 $end
$var reg 6 W" \MEM[94] [5:0] $end
$upscope $end
$upscope $end
$upscope $end
$scope module led_panel_8_TB $end
$scope module uut $end
$scope module mem0 $end
$var reg 6 X" \MEM[95] [5:0] $end
$upscope $end
$upscope $end
$upscope $end
$scope module led_panel_8_TB $end
$scope module uut $end
$scope module mem0 $end
$var reg 6 Y" \MEM[96] [5:0] $end
$upscope $end
$upscope $end
$upscope $end
$scope module led_panel_8_TB $end
$scope module uut $end
$scope module mem0 $end
$var reg 6 Z" \MEM[97] [5:0] $end
$upscope $end
$upscope $end
$upscope $end
$scope module led_panel_8_TB $end
$scope module uut $end
$scope module mem0 $end
$var reg 6 [" \MEM[98] [5:0] $end
$upscope $end
$upscope $end
$upscope $end
$scope module led_panel_8_TB $end
$scope module uut $end
$scope module mem0 $end
$var reg 6 \" \MEM[99] [5:0] $end
$upscope $end
$upscope $end
$upscope $end
$enddefinitions $end
$comment Show the parameter values. $end
$dumpall
b0 Q
b11 P
b100 O
b111 N
b110 M
b10 L
b1 K
b101 J
b100 G
b1010 E
b101 B
b1010 A
b11110 @
b11110 <
b10100 &
$end
#0
$dumpvars
b10010 \"
b10010 ["
b10010 Z"
b10010 Y"
b10010 X"
b10010 W"
b10010 V"
b10010 U"
b10010 T"
b10010 S"
b10010 R"
b10010 Q"
b10010 P"
b10010 O"
b10010 N"
b10010 M"
b10010 L"
b10010 K"
b10010 J"
b10010 I"
b10010 H"
b10010 G"
b10010 F"
b10010 E"
b10010 D"
b10010 C"
b10010 B"
b10010 A"
b10010 @"
b10010 ?"
b10010 >"
b10010 ="
b10010 <"
b10010 ;"
b10010 :"
b10010 9"
b100100 8"
b100100 7"
b100100 6"
b100100 5"
b100100 4"
b100100 3"
b100100 2"
b100100 1"
b100100 0"
b100100 /"
b100100 ."
b100100 -"
b100100 ,"
b100100 +"
b100100 *"
b100100 )"
b100100 ("
b100100 '"
b100100 &"
b100100 %"
b100100 $"
b100100 #"
b100100 ""
b100100 !"
b100100 ~
b100100 }
b100100 |
b100100 {
b100100 z
b100100 y
b100100 x
b100100 w
b100100 v
b100100 u
b100100 t
b100100 s
b100100 r
b100100 q
b100100 p
b100100 o
b100100 n
b100100 m
b100100 l
b100100 k
b100100 j
b100100 i
b100100 h
b100100 g
b100100 f
b100100 e
b100100 d
b100100 c
b100100 b
b100100 a
b100100 `
b100100 _
b100100 ^
b100100 ]
b100100 \
b100100 [
b100100 Z
b100100 Y
b100100 X
b100100 W
bx V
1U
bx T
bx S
bx R
1I
bx H
bx F
xD
bx C
bx ?
bx >
x=
bx ;
bx :
x9
bx 8
bx 7
bx 6
bx 5
x4
x3
x2
x1
x0
x/
x.
x-
x,
x+
b1100100 *
0)
0(
0'
x%
x$
bx #
bx "
bx !
$end
#10000
0+
0=
b0 >
1)
1'
#20000
0'
#30000
0)
1'
#40000
0'
#50000
b1 >
1'
#60000
0'
#70000
b10 >
1'
#80000
0'
#90000
b11 >
1'
#100000
0'
#110000
b100 >
1'
1(
#120000
0'
#130000
b101001101010100010000010101001001010100 S
09
0$
0%
03
04
02
00
01
0/
b0 R
0+
b0 >
1=
1'
#140000
0'
#150000
b1 >
1'
#160000
0'
#170000
b10 >
1'
#180000
0'
#190000
b11 >
1'
#200000
0'
#210000
b100 >
1'
#220000
0'
#230000
1D
1.
1,
0-
b0 5
b0 ?
b0 F
b0 ;
b0 C
b0 :
b0 T
b0 !
b0 6
b0 H
b0 >
0=
1'
#240000
0'
#250000
b1 >
1'
#260000
0'
#270000
b10 >
1'
#280000
0'
#290000
b11 >
1'
#300000
0'
#310000
b100 >
1'
#320000
0'
#330000
1$
10
11
1/
b10001110100010101010100010111110101000001001001010110000100010101001100 S
b1 R
b0 >
1=
1'
#340000
0'
#350000
b1 >
1'
#360000
0'
#370000
b10 >
1'
#380000
0'
#390000
b11 >
1'
#400000
0'
#410000
b100 >
1'
#420000
0'
#430000
b100 "
b100 7
b100 #
b100 8
b100100 V
b0 >
0=
1'
#440000
0'
#450000
b1 >
1'
#460000
0'
#470000
b10 >
1'
#480000
0'
#490000
b11 >
1'
#500000
0'
#510000
b100 >
1'
#520000
0'
#530000
1+
b1001001010011100100001101011111010000110100111101001100 S
19
14
b10 R
b0 >
1=
1'
#540000
0'
#550000
b1 >
1'
#560000
0'
#570000
b10 >
1'
#580000
0'
#590000
b11 >
1'
#600000
0'
#610000
b100 >
1'
#620000
0'
#630000
0.
b1 :
b1 T
b1 ;
b1 C
0+
b0 >
0=
1'
#640000
0'
#650000
b1 >
1'
#660000
0'
#670000
b10 >
1'
#680000
0'
#690000
b11 >
1'
#700000
0'
#710000
b100 >
1'
#720000
0'
#730000
1+
b0 >
1=
1'
#740000
0'
#750000
b1 >
1'
#760000
0'
#770000
b10 >
1'
#780000
0'
#790000
b11 >
1'
#800000
0'
#810000
b100 >
1'
#820000
0'
#830000
b10 :
b10 T
b10 ;
b10 C
0+
b0 >
0=
1'
#840000
0'
#850000
b1 >
1'
#860000
0'
#870000
b10 >
1'
#880000
0'
#890000
b11 >
1'
#900000
0'
#910000
b100 >
1'
#920000
0'
#930000
1+
b0 >
1=
1'
#940000
0'
#950000
b1 >
1'
#960000
0'
#970000
b10 >
1'
#980000
0'
#990000
b11 >
1'
#1000000
0'
#1010000
b100 >
1'
#1020000
0'
#1030000
b11 :
b11 T
b11 ;
b11 C
0+
b0 >
0=
1'
#1040000
0'
#1050000
b1 >
1'
#1060000
0'
#1070000
b10 >
1'
#1080000
0'
#1090000
b11 >
1'
#1100000
0'
#1110000
b100 >
1'
#1120000
0'
#1130000
1+
b0 >
1=
1'
#1140000
0'
#1150000
b1 >
1'
#1160000
0'
#1170000
b10 >
1'
#1180000
0'
#1190000
b11 >
1'
#1200000
0'
#1210000
b100 >
1'
#1220000
0'
#1230000
b100 :
b100 T
b100 ;
b100 C
0+
b0 >
0=
1'
#1240000
0'
#1250000
b1 >
1'
#1260000
0'
#1270000
b10 >
1'
#1280000
0'
#1290000
b11 >
1'
#1300000
0'
#1310000
b100 >
1'
#1320000
0'
#1330000
1+
b0 >
1=
1'
#1340000
0'
#1350000
b1 >
1'
#1360000
0'
#1370000
b10 >
1'
#1380000
0'
#1390000
b11 >
1'
#1400000
0'
#1410000
b100 >
1'
#1420000
0'
#1430000
b101 :
b101 T
b101 ;
b101 C
0+
b0 >
0=
1'
#1440000
0'
#1450000
b1 >
1'
#1460000
0'
#1470000
b10 >
1'
#1480000
0'
#1490000
b11 >
1'
#1500000
0'
#1510000
b100 >
1'
#1520000
0'
#1530000
1+
b0 >
1=
1'
#1540000
0'
#1550000
b1 >
1'
#1560000
0'
#1570000
b10 >
1'
#1580000
0'
#1590000
b11 >
1'
#1600000
0'
#1610000
b100 >
1'
#1620000
0'
#1630000
b110 :
b110 T
b110 ;
b110 C
0+
b0 >
0=
1'
#1640000
0'
#1650000
b1 >
1'
#1660000
0'
#1670000
b10 >
1'
#1680000
0'
#1690000
b11 >
1'
#1700000
0'
#1710000
b100 >
1'
#1720000
0'
#1730000
1+
b0 >
1=
1'
#1740000
0'
#1750000
b1 >
1'
#1760000
0'
#1770000
b10 >
1'
#1780000
0'
#1790000
b11 >
1'
#1800000
0'
#1810000
b100 >
1'
#1820000
0'
#1830000
b111 :
b111 T
b111 ;
b111 C
0+
b0 >
0=
1'
#1840000
0'
#1850000
b1 >
1'
#1860000
0'
#1870000
b10 >
1'
#1880000
0'
#1890000
b11 >
1'
#1900000
0'
#1910000
b100 >
1'
#1920000
0'
#1930000
1+
b0 >
1=
1'
#1940000
0'
#1950000
b1 >
1'
#1960000
0'
#1970000
b10 >
1'
#1980000
0'
#1990000
b11 >
1'
#2000000
0'
#2010000
b100 >
1'
#2020000
0'
#2030000
b1000 :
b1000 T
b1000 ;
b1000 C
0+
b0 >
0=
1'
#2040000
0'
#2050000
b1 >
1'
#2060000
0'
#2070000
b10 >
1'
#2080000
0'
#2090000
b11 >
1'
#2100000
0'
#2110000
b100 >
1'
#2120000
0'
#2130000
1+
b0 >
1=
1'
#2140000
0'
#2150000
b1 >
1'
#2160000
0'
#2170000
b10 >
1'
#2180000
0'
#2190000
b11 >
1'
#2200000
0'
#2210000
b100 >
1'
#2220000
0'
#2230000
b1001 :
b1001 T
b1001 ;
b1001 C
0+
b0 >
0=
1'
#2240000
0'
#2250000
b1 >
1'
#2260000
0'
#2270000
b10 >
1'
#2280000
0'
#2290000
b11 >
1'
#2300000
0'
#2310000
b100 >
1'
#2320000
0'
#2330000
1+
b0 >
1=
1'
#2340000
0'
#2350000
b1 >
1'
#2360000
0'
#2370000
b10 >
1'
#2380000
0'
#2390000
b11 >
1'
#2400000
0'
#2410000
b100 >
1'
#2420000
0'
#2430000
b1010 :
b1010 T
b1010 ;
b1010 C
0+
b0 >
0=
1'
#2440000
0'
#2450000
b1 >
1'
#2460000
0'
#2470000
b10 >
1'
#2480000
0'
#2490000
b11 >
1'
#2500000
0'
#2510000
b100 >
1'
#2520000
0'
#2530000
1+
b0 >
1=
1'
#2540000
0'
#2550000
b1 >
1'
#2560000
0'
#2570000
b10 >
1'
#2580000
0'
#2590000
b11 >
1'
#2600000
0'
#2610000
b100 >
1'
#2620000
0'
#2630000
b1011 :
b1011 T
b1011 ;
b1011 C
0+
b0 >
0=
1'
#2640000
0'
#2650000
b1 >
1'
#2660000
0'
#2670000
b10 >
1'
#2680000
0'
#2690000
b11 >
1'
#2700000
0'
#2710000
b100 >
1'
#2720000
0'
#2730000
1+
b0 >
1=
1'
#2740000
0'
#2750000
b1 >
1'
#2760000
0'
#2770000
b10 >
1'
#2780000
0'
#2790000
b11 >
1'
#2800000
0'
#2810000
b100 >
1'
#2820000
0'
#2830000
b1100 :
b1100 T
b1100 ;
b1100 C
0+
b0 >
0=
1'
#2840000
0'
#2850000
b1 >
1'
#2860000
0'
#2870000
b10 >
1'
#2880000
0'
#2890000
b11 >
1'
#2900000
0'
#2910000
b100 >
1'
#2920000
0'
#2930000
1+
b0 >
1=
1'
#2940000
0'
#2950000
b1 >
1'
#2960000
0'
#2970000
b10 >
1'
#2980000
0'
#2990000
b11 >
1'
#3000000
0'
#3010000
b100 >
1'
#3020000
0'
#3030000
b1101 :
b1101 T
b1101 ;
b1101 C
0+
b0 >
0=
1'
#3040000
0'
#3050000
b1 >
1'
#3060000
0'
#3070000
b10 >
1'
#3080000
0'
#3090000
b11 >
1'
#3100000
0'
#3110000
b100 >
1'
#3120000
0'
#3130000
1+
b0 >
1=
1'
#3140000
0'
#3150000
b1 >
1'
#3160000
0'
#3170000
b10 >
1'
#3180000
0'
#3190000
b11 >
1'
#3200000
0'
#3210000
b100 >
1'
#3220000
0'
#3230000
b1110 :
b1110 T
b1110 ;
b1110 C
0+
b0 >
0=
1'
#3240000
0'
#3250000
b1 >
1'
#3260000
0'
#3270000
b10 >
1'
#3280000
0'
#3290000
b11 >
1'
#3300000
0'
#3310000
b100 >
1'
#3320000
0'
#3330000
1+
b0 >
1=
1'
#3340000
0'
#3350000
b1 >
1'
#3360000
0'
#3370000
b10 >
1'
#3380000
0'
#3390000
b11 >
1'
#3400000
0'
#3410000
b100 >
1'
#3420000
0'
#3430000
b1111 :
b1111 T
b1111 ;
b1111 C
0+
b0 >
0=
1'
#3440000
0'
#3450000
b1 >
1'
#3460000
0'
#3470000
b10 >
1'
#3480000
0'
#3490000
b11 >
1'
